FM project
…
For Box-Cox transformation to be performed we found lambda for each
time series and than use it to transform the time series.

3.3. Decomposition

###STL Decomposition

## # A dable: 156 x 7 [1M]
## # Key:     .model [1]
## # :        Amount of Crude Oil (Thousand Barrels) = trend + season_year +
## #   remainder
##    .model     Date Amount of Crude Oil (Thousan  trend seaso remai seaso
##    <chr>     <mth>                          <dbl>  <dbl>   <dbl>   <dbl>   <dbl>
##  1 stl    2010 Feb                              0 -20.8    -31.4    52.2    31.4
##  2 stl    2010 Mar                              0 -18.7    222.   -203.   -222. 
##  3 stl    2010 Apr                              0 -16.6     41.9   -25.3   -41.9
##  4 stl    2010 May                              0 -14.4    383.   -369.   -383. 
##  5 stl    2010 Jun                              0 -13.1   -326.    339.    326. 
##  6 stl    2010 Jul                              0 -11.9   -435.    447.    435. 
##  7 stl    2010 Aug                              0 -10.6   -175.    186.    175. 
##  8 stl    2010 Sep                              0  -7.52   300.   -293.   -300. 
##  9 stl    2010 Oct                              0  -4.45   258.   -254.   -258. 
## 10 stl    2010 Nov                              0  -1.39  -196.    197.    196. 
## #  with 146 more rows, and abbreviated variable names
## #   `Amount of Crude Oil (Thousand Barrels)`, season_year, remainder,
## #   season_adjust

## # A dable: 156 x 7 [1M]
## # Key:     .model [1]
## # :        Amount of total Petroleum Porducts (Thousand Barrels) = trend +
## #   season_year + remainder
##    .model     Date Amount of total Petroleum Po  trend seaso remai seaso
##    <chr>     <mth>                          <dbl>  <dbl>   <dbl>   <dbl>   <dbl>
##  1 stl    2010 Feb                           5360  8579.  -4551.   1332.   9911.
##  2 stl    2010 Mar                           6323  9169.  -2557.   -290.   8880.
##  3 stl    2010 Apr                           8564  9759.    954.  -2150.   7610.
##  4 stl    2010 May                          10587 10349.   -116.    354.  10703.
##  5 stl    2010 Jun                          11776 10911.    618.    247.  11158.
##  6 stl    2010 Jul                          11143 11472.   1216.  -1544.   9927.
##  7 stl    2010 Aug                          12516 12033.   1104.   -621.  11412.
##  8 stl    2010 Sep                          13405 12570.   1109.   -274.  12296.
##  9 stl    2010 Oct                          16466 13107.    822.   2537.  15644.
## 10 stl    2010 Nov                          18301 13644.    567.   4090.  17734.
## #  with 146 more rows, and abbreviated variable names
## #   `Amount of total Petroleum Porducts (Thousand Barrels)`, season_year,
## #   remainder, season_adjust

## # A dable: 156 x 7 [1M]
## # Key:     .model [1]
## # :        Amount of Natural gas (BOE) = trend + season_year + remainder
##    .model     Date `Amount of Natural gas (BOE)` trend season remain seaso
##    <chr>     <mth>                         <dbl> <dbl>    <dbl>    <dbl>   <dbl>
##  1 stl    2010 Feb                             0 38.2    -39.0     0.829   39.0 
##  2 stl    2010 Mar                             0 33.2    -39.4     6.19    39.4 
##  3 stl    2010 Apr                             0 28.2    -20.1    -8.17    20.1 
##  4 stl    2010 May                             0 23.2    -16.4    -6.87    16.4 
##  5 stl    2010 Jun                             0 19.2    -59.8    40.7     59.8 
##  6 stl    2010 Jul                             0 15.1    -40.8    25.7     40.8 
##  7 stl    2010 Aug                             0 11.0     -6.19   -4.78     6.19
##  8 stl    2010 Sep                             0  7.98   -14.1     6.07    14.1 
##  9 stl    2010 Oct                             0  4.99   -29.0    24.0     29.0 
## 10 stl    2010 Nov                             0  2.01   108.   -110.    -108.  
## #  with 146 more rows, and abbreviated variable names season_year,
## #   remainder, season_adjust
…
